==========================================================
= WARNING: THE FOLLOWING CONTAINS CLASSIFIED INFORMATION = 
= THE CONTENTS OF THIS FILE SHOULD NOT BE MODIFIED BY    =
= ANYONE OTHER THAN *AUTHORIZED* PERSONEL.               =
==========================================================

secret_password=A1pha0m3ga